reference/captures/c64_bus_timing.vcd
$date 2024-01-21 18:12:55.673070 $end
$timescale 1 ps $end
$scope module  $end
$var wire 1 ! PHI2 $end
$var wire 1 " R_W $end
$var wire 1 # D0 $end
$var wire 1 $ A0 $end
$upscope $end
$enddefinitions $end
#0
$dumpvars
1!
0"
0#
0$
$end
#2
0!
#3
1$
#4
1"
#6
1#
#8
1!
0#
#9
1#
#12
0!
#13
0#
#15
1#
#17
1!
#18
0#
0$
#22
0!
1$
#25
1#
#27
1!
#28
0#
#32
0!
#35
1#
#37
1!
0"
0#
0$
#42
0!
1$
#43
1"
#45
1#
#47
1!
0$
#48
0#
#51
0!
#52
1$
#54
1#
#58
1!
0#
1#
#61
0!
#62
0#
#64
1#
#66
1!
0$
#67
0#
#71
0!
1$
#74
1#
#77
1!
#81
0!
0#
#84
1#
#86
1!
0$
#87
0#
#90
0!
#91
1$
#94
1#
#96
1!
0$
#98
0#
#100
0!
#101
1$
#103
1#
#105
1!
#110
0!
#111
0#
#113
1#
#115
1!
0$
#116
0#
#120
0!
1$
#123
1#
#125
1!
0"
0#
0$
#130
0!
1$
#131
1"
#133
1#
#135
1!
#139
0!
#140
0#
#142
1#
#146
1!
0#
0$
#149
0!
#150
1$
#152
1#
#154
1!
#155
0#
#159
0!
#162
1#
#165
1!
0"
0$
0#
#169
0!
1$
#170
1"
#172
1#
#174
1!
0$
#175
0#
#178
0!
#179
1$
#182
1#
#184
1!
0#
#185
1#
#188
0!
#189
0#
#192
1#
#193
1!
#194
0#
0$
#198
0!
1$
#201
1#
#203
1!
#208
0!
0#
#211
1#
#213
1!
0$
#214
0#
#218
0!
#223
1!
1#
#226
0#
#227
0!
#228
1$
#230
1#
#234
1!
0#
1#
#237
0!
#238
0#
#242
1!
0$
#247
0!
1$
#250
1#
#253
1!
0"
0$
0#
#257
0!
#258
1"
#260
1#
#262
1!
0#
1$
#263
1#
#266
0!
#267
0#
#270
1#
#272
1!
0#
0$
#276
0!
#277
1$
#280
1#
#281
1!
#282
0#
#286
0!
#289
1#
#291
1!
0"
0$
#292
0#
#296
0!
#297
1"
#299
1#
#301
1!
#303
0#
#306
0!
1$
#309
1#
#311
1!
#315
0!
#316
0#
#322
1!
0$
#326
0!
1$
#328
1#
#330
1!
#335
0!
0#
0$
#338
1#
#340
1!
#341
0#
#345
0!
1$
#348
1#
#350
1!
0$
#353
0#
#354
0!
#355
1$
#358
1#
#360
1!
0#
#361
1#
#364
0!
#365
0#
#368
1#
#369
1!
#370
0#
0$
#374
0!
#379
1!
0"
1#
#380
0#
#384
0!
1$
#385
1"
#387
1#
#389
1!
#394
0!
0#
0$
#397
1#
#399
1!
#400
0#
#403
0!
#404
1$
#410
1!
#414
0!
0$
#418
1!
0"
#423
0!
1$
#424
1"
#426
1#
#428
1!
0$
#429
0#
#433
0!
1$
#437
1#
#438
1!
#442
0!
#443
0#
#446
1#
#448
1!
0#
0$
#452
0!
#453
1$
#456
1#
#457
1!
#458
0#
#460
1#
#462
0!
#463
0#
#465
1#
#467
1!
0$
#468
0#
#472
0!
1$
#475
1#
#477
1!
0$
#480
0#
#482
0!
1$
#485
1#
#487
1!
#491
0!
#492
0#
#495
1#
#498
1!
0#
0$
#502
0!
1$
#504
1#
#506
0"
0$
#507
1!
0#
#511
0!
1$
#512
1"
#514
1#
#516
1!
#521
0!
0#
#525
1#
#526
1!
0$
#527
0#
#530
0!
#531
1$
#534
1#
#536
1!
0#
#540
0!
#544
1#
#545
0"
#546
1!
0#
0$
#550
0!
1$
#551
1"
#553
1#
#555
1!
0$
#556
0#
#560
0!
1$
#563
1#
#565
1!
#571
0!
0#
#573
1#
#575
1!
0#
0$
#579
0!
#580
1$
#582
1#
#585
1!
0#
#586
1#
#590
0!
0#
#592
1#
#594
1!
0$
#595
0#
#599
0!
1$
#602
1#
#604
1!
0$
#607
0#
#609
0!
1$
#613
1#
#614
1!
#618
0!
#619
0#
#622
1#
#624
1!
0#
0$
#628
0!
#629
1$
#632
1#
#633
0"
#634
1!
0#
0$
#638
0!
#639
1"
1$
#641
1#
#643
1!
#648
0!
0#
#651
1#
#653
1!
0$
#655
0#
#659
0!
1$
#661
1#
#663
1!
0#
#667
0!
#670
1#
#673
1!
0"
0#
0$
#678
0!
1"
1$
#680
1#
#682
1!
0$
#683
0#
#687
0!
1$
#690
1#
#692
1!
#697
0!
0#
#701
1#
#702
1!
0$
#703
0#
#706
0!
#707
1$
#710
1#
#712
1!
0#
#713
1#
#716
0!
#717
0#
#719
1#
#721
1!
#722
0#
0$
#726
0!
1$
#729
1#
#731
1!
0$
#734
0#
#736
0!
1$
#739
1#
#741
1!
#747
0!
0#
#749
1#
#751
1!
0#
0$
#755
0!
#756
1$
#759
1#
#761
1!
0"
0#
0$
#766
0!
1"
1$
#768
1#
#770
1!
#771
0#
#772
1#
#775
0!
#776
0#
#778
1#
#780
1!
0$
#781
0#
#785
0!
1$
#789
1#
#790
1!
#791
0#
#794
0!
#798
1#
#800
1!
0"
0#
0$
#804
0!
#805
1"
1$
#807
1#
#809
1!
#810
0#
0$
#814
0!
1$
#817
1#
#819
1!
#824
0!
0#
#827
1#
#829
1!
0$
#830
0#
#835
0!
1$
#837
1#
#839
1!
#843
0!
#844
0#
0$
#849
1!
#853
0!
#854
1$
#856
1#
#858
1!
#859
0$
#861
0#
#863
0!
1$
#868
1!
#869
1#
#873
0!
0#
#877
1#
#878
1!
0$
#879
0#
#882
0!
#886
1#
#888
1!
0"
0#
#892
0!
#893
1"
1$
#895
1#
#897
1!
#898
0#
#900
1#
#902
0!
#904
0#
#905
1#
#907
1!
0$
#908
0#
#912
0!
1$
#915
1#
#917
1!
#918
0#
#923
0!
0$
#925
1#
#927
1!
0"
0#
#931
0!
#932
1"
1$
#935
1#
#937
1!
0#
0$
#941
0!
#942
1$
#946
1!
#947
1#
#951
0!
#952
0#
#954
1#
#956
1!
0$
#957
0#
#961
0!
#964
1#
#966
1!
1$
#970
0!
#971
0#
#974
1#
#976
1!
0#
0$
#980
0!
#981
1$
#983
1#
#985
1!
#986
0$
#988
0#
#990
0!
1$
#993
1#
#995
1!
#1000
0!
0#
#1001
1#
#1005
1!
0#
0$
#1011
0!
1#
#1015
1!
0"
0#
#1019
0!
#1020
1"
1$
#1021
1#
#1022
0#
#1025
1!
#1026
1#
#1029
0!
#1030
0$
#1031
0#
#1034
1!
#1039
0!
1$
#1042
1#
#1044
1!
0#
#1049
0!
#1052
1#
#1054
1!
0"
0#
0$
#1058
0!
#1059
1"
1$
#1062
1#
#1064
1!
0#
0$
#1068
0!
#1069
1$
#1071
1#
#1074
1!
0#
#1075
1#
#1078
0!
#1080
0#
#1081
1#
#1084
1!
0$
0#
#1088
0!
1$
#1091
1#
#1093
1!
#1098
0!
0#
#1101
1#
#1103
1!
0$
#1104
0#
#1107
0!
#1108
1$
#1110
1#
#1113
1!
0$
#1115
0#
#1117
0!
#1118
1$
#1120
1#
#1122
1!
#1127
0!
#1128
0#
#1130
1#
#1132
1!
0$
#1133
0#
#1137
0!
1$
#1140
1#
#1142
1!
0"
0#
0$
#1146
0!
#1147
1$
#1149
1"
#1150
1#
#1152
1!
0#
#1153
1#
#1156
0!
#1157
0#
#1159
1#
#1161
1!
#1162
0#
0$
#1166
0!
#1168
1$
#1169
1#
#1172
1!
0#
#1176
0!
#1179
1#
#1181
1!
0"
0#
0$
#1186
0!
1$
#1187
1"
#1189
1#
#1191
1!
0$
#1192
0#
#1195
0!
#1196
1$
#1199
1#
#1201
1!
0#
#1202
1#
#1205
0!
#1206
0#
#1208
1#
#1210
1!
0$
#1211
0#
#1215
0!
1$
#1218
1#
#1220
1!
#1225
0!
0#
#1228
1#
#1230
1!
0$
#1231
0#
#1234
0!
#1235
1$
#1238
1#
#1240
1!
0$
#1242
0#
#1244
0!
#1245
1$
#1247
1#
#1249
1!
#1254
0!
#1256
0#
#1257
1#
#1260
1!
0$
0#
#1264
0!
1$
#1267
1#
#1269
1!
0"
0#
0$
#1274
0!
1$
#1275
1"
#1277
1#
#1279
1!
0#
#1280
1#
#1283
0!
#1284
0#
#1287
1#
#1289
1!
0#
0$
#1293
0!
#1294
1$
#1296
1#
#1298
1!
#1299
0#
#1303
0!
#1306
1#
#1308
1!
0"
0$
#1309
0#
#1313
0!
1$
#1314
1"
#1316
1#
#1318
1!
0$
#1319
0#
#1322
0!
#1323
1$
#1326
1#
#1329
1!
0#
1#
#1332
0!
#1333
0#
#1335
1#
#1337
1!
#1338
0#
0$
#1342
0!
1$
#1345
1#
#1348
1!
#1352
0!
0#
#1355
1#
#1357
1!
0$
#1358
0#
#1362
0!
1$
#1365
1#
#1367
1!
0$
#1371
0#
0!
#1372
1$
#1374
1#
#1377
1!
0#
#1378
1#
#1381
0!
#1382
0#
#1384
1#
#1386
1!
0$
#1387
0#
#1391
0!
1$
#1394
1#
#1396
1!
0"
0$
#1397
0#
#1401
0!
1$
#1402
1"
#1404
1#
#1406
1!
#1410
0!
#1411
0#
#1414
1#
#1417
1!
0#
0$
#1420
0!
#1421
1$
#1423
1#
#1425
1!
#1426
0#
#1430
0!
#1433
1#
#1436
1!
0"
0$
0#
#1440
0!
1$
#1441
1"
#1443
1#
#1445
1!
0$
#1446
0#
#1450
0!
1$
#1453
1#
#1455
1!
#1459
0!
#1460
0#
#1463
1#
#1465
1!
0#
0$
#1469
0!
#1474
1!
1#
#1475
1$
#1479
0!
#1480
0#
#1482
1#
#1484
1!
0$
#1486
0#
#1489
0!
1$
#1494
1!
0$
#1498
0!
#1499
1$
#1502
1#
#1505
1!
0#
1#
#1508
0!
#1509
0#
0$
#1511
1#
#1513
1!
#1514
0#
#1518
0!
#1519
1$
#1521
1#
#1524
1!
0"
0$
0#
#1528
0!
1$
#1529
1"
#1531
1#
#1533
1!
#1538
0!
0#
#1541
1#
#1543
1!
0#
0$
#1547
0!
#1551
1#
#1553
1!
0#
1$
#1557
0!
#1560
1#
#1562
0"
0$
#1563
1!
0#
#1567
0!
1$
#1568
1"
#1572
1!
0$
#1577
0!
1$
#1580
1#
#1582
1!
#1586
0!
#1587
0#
0$
#1590
1#
#1593
1!
0#
#1597
0!
1$
#1599
1#
#1602
1!
0#
#1603
1#
#1606
0!
#1607
0#
#1609
1#
#1611
1!
0$
#1612
0#
#1616
0!
1$
#1619
1#
#1621
1!
0$
#1624
0#
#1626
0!
#1627
1#
#1631
1!
1$
#1635
0!
#1636
0#
#1637
1#
#1639
0#
#1641
1!
0$
#1645
0!
#1646
1#
#1648
0#
#1650
0"
#1651
1!
#1655
0!
1$
#1656
1"
#1658
1#
#1660
1!
#1665
0!
0#
0$
#1668
1#
#1670
1!
0#
#1674
0!
#1675
1$
#1678
1#
#1681
1!
0#
#1685
0!
#1687
1#
#1689
0"
#1690
1!
0#
0$
#1694
0!
1$
#1695
1"
#1697
1#
#1699
1!
0$
#1700
0#
#1704
0!
1$
#1708
1#
#1709
1!
#1714
0!
0#
#1717
1#
#1719
1!
0$
#1720
0#
#1723
0!
#1724
1$
#1727
1#
#1729
1!
0#
#1731
1#
#1733
0!
#1734
0#
#1736
1#
#1738
1!
0$
#1740
0#
#1743
0!
1$
#1746
1#
#1748
1!
0$
#1751
0#
#1753
0!
1$
#1756
1#
#1758
1!
#1762
0!
#1763
0#
#1766
1#
#1769
1!
0#
0$
#1773
0!
1$
#1775
1#
#1777
0"
#1778
1!
0#
0$
#1782
0!
#1783
1"
1$
#1785
1#
#1787
1!
#1792
0!
0#
#1796
1#
#1797
1!
0$
#1798
0#
#1802
0!
1$
#1805
1#
#1807
1!
#1808
0#
#1811
0!
#1815
1#
#1817
1!
0"
0#
0$
#1821
0!
#1822
1"
1$
#1824
1#
#1826
1!
#1827
0#
0$
#1831
0!
1$
#1834
1#
#1836
1!
#1842
0!
0#
#1844
1#
#1846
1!
0$
#1847
0#
#1850
0!
#1851
1$
#1854
1#
#1856
1!
0#
#1857
1#
#1861
0!
0#
#1863
1#
#1865
1!
#1866
0#
0$
#1870
0!
#1871
1$
#1873
1#
#1875
1!
0$
#1878
0#
#1880
0!
1$
#1884
1#
#1885
1!
#1890
0!
0#
#1893
1#
#1895
1!
0#
0$
#1899
0!
#1900
1$
#1903
1#
#1905
1!
0"
0#
0$
#1909
0!
#1910
1"
1$
#1912
1#
#1914
1!
#1915
0#
#1916
1#
#1919
0!
#1920
0#
#1922
1#
#1924
1!
0$
#1926
0#
#1930
0!
1$
#1932
1#
#1934
1!
#1935
0#
#1938
0!
#1942
1#
#1944
1!
0"
0#
0$
#1949
0!
1"
1$
#1951
1#
#1953
1!
#1954
0#
0$
#1958
0!
1$
#1961
1#
#1963
1!
#1968
0!
0#
#1972
1#
#1973
1!
0$
#1974
0#
#1978
0!
1$
#1981
1#
#1983
1!
#1987
0!
#1988
0#
#1991
1#
#1993
1!
0#
0$
#1997
0!
#1999
1$
#2000
1#
#2002
1!
#2003
0$
#2005
0#
#2007
0!
1$
#2010
1#
#2012
1!
#2018
0!
0#
#2020
1#
#2022
1!
0$
#2023
0#
#2026
0!
#2027
1$
#2030
1#
#2032
1!
0"
0#
0$
#2037
0!
1"
1$
#2039
1#
#2041
1!
#2042
0#
#2043
1#
#2046
0!
#2047
0#
#2049
1#
#2051
1!
0$
#2052
0#
#2056
0!
1$
#2060
1#
#2061
1!
#2062
0#
#2066
0!
#2069
1#
#2071
1!
0"
0#
0$
#2075
0!
#2076
1"
1$
#2079
1#
#2081
1!
0#
0$
#2085
0!
#2087
1$
#2088
1#
#2090
1!
#2095
0!
0#
0$
#2100
1!
1#
#2101
0#
#2106
0!
1$
#2108
1#
#2110
1!
#2114
0!
#2115
0#
#2120
1!
0$
#2124
0!
#2125
1$
#2127
1#
#2130
1!
0$
#2132
0#
#2134
0!
#2137
1#
#2139
1!
0#
1$
#2140
1#
#2144
0!
0#
#2148
1#
#2149
1!
0$
#2150
0#
#2154
0!
1$
#2157
1#
#2159
1!
0"
0#
0$
#2163
0!
#2164
1"
1$
#2167
1#
#2169
1!
0#
#2171
1#
#2173
0!
#2175
0#
0$
#2176
1#
#2178
1!
#2179
0#
#2183
0!
1$
#2186
1#
#2188
1!
#2189
0#
#2194
0!
#2198
1!
0"
0$
#2202
0!
#2203
1$
#2204
1"
#2206
1#
#2208
1!
0#
0$
#2212
0!
#2215
1#
#2218
1!
0#
1$
#2219
1#
#2222
0!
#2223
0#
#2225
1#
#2227
1!
0$
#2228
0#
#2232
0!
1$
#2235
1#
#2237
1!
#2242
0!
0#
#2245
1#
#2247
1!
0$
#2248
0#
#2251
0!
#2252
1$
#2257
1!
0$
#2261
0!
#2263
1#
0#
#2266
1!
1#
1$
#2271
0!
#2272
0#
#2274
1#
#2276
1!
0#
0$
#2282
0!
#2284
1#
#2286
1!
0"
0#
#2290
0!
#2291
1$
#2292
1"
#2296
1!
1#
#2300
0!
#2301
0#
#2303
1#
#2305
1!
#2306
0#
0$
#2310
0!
1$
#2313
1#
#2315
1!
#2316
0#
#2320
0!
#2323
1#
#2325
1!
0"
0#
0$
#2330
0!
1$
#2332
1"
#2333
1#
#2335
1!
0$
#2336
0#
#2339
0!
#2340
1$
#2343
1#
#2345
1!
0#
#2346
1#
#2349
0!
#2351
0#
#2352
1#
#2355
1!
0#
0$
#2359
0!
1$
#2362
1#
#2364
1!
#2369
0!
0#
#2372
1#
#2374
1!
0$
#2375
0#
#2378
0!
#2379
1$
#2382
1#
#2384
1!
0$
#2386
0#
#2388
0!
#2389
1$
#2391
1#
#2394
1!
#2398
0!
#2399
0#
#2401
1#
#2403
1!
0$
#2404
0#
#2408
0!
1$
#2411
1#
#2413
1!
0"
0#
0$
#2418
0!
1$
#2420
1"
#2421
1#
#2423
1!
#2427
0!
#2428
0#
#2431
1#
#2433
1!
0#
0$
#2437
0!
#2439
1$
#2440
1#
#2443
1!
0#
#2447
0!
#2450
1#
#2452
1!
0"
0$
#2453
0#
#2457
0!
1$
#2458
1"
#2460
1#
#2462
1!
0$
#2463
0#
#2466
0!
#2467
1$
#2470
1#
#2472
1!
0#
#2473
1#
#2476
0!
#2477
0#
#2479
1#
#2481
1!
#2482
0#
0$
#2486
0!
#2487
1$
#2489
1#
#2491
1!
#2496
0!
0#
#2499
1#
#2501
1!
0$
#2502
0#
#2506
0!
1$
#2509
1#
#2511
1!
0$
#2514
0#
#2515
0!
#2516
1$
#2518
1#
#2521
1!
0#
#2522
1#
#2525
0!
#2526
0#
#2528
1#
#2531
1!
0#
0$
#2535
0!
1$
#2538
1#
#2540
1!
0"
0$
#2541
0#
#2545
0!
1$
#2546
1"
#2548
1#
#2550
1!
#2554
0!
#2555
0#
#2558
1#
#2560
1!
0#
0$
#2564
0!
#2565
1$
#2567
1#
#2569
1!
#2570
0#
#2574
0!
#2577
1#
#2579
1!
0"
0$
#2580
0#
#2584
0!
1$
#2585
1"
#2587
1#
#2589
1!
0$
#2590
0#
#2594
0!
1$
#2597
1#
#2600
1!
#2603
0!
#2604
0#
#2607
1#
#2609
1!
0#
0$
#2613
0!
#2614
1$
#2616
1#
#2619
1!
#2623
0!
#2624
0#
#2626
1#
#2628
1!
0$
#2629
0#
#2633
0!
1$
#2636
1#
#2638
1!
0$
#2642
0#
0!
#2643
1$
#2646
1#
#2648
1!
0#
#2649
1#
#2652
0!
#2653
0#
#2655
1#
#2657
1!
#2658
0#
0$
#2662
0!
#2663
1$
#2665
1#
#2667
1!
0"
0$
#2668
0#
#2672
0!
1$
#2673
1"
#2675
1#
#2677
1!
#2682
0!
0#
#2685
1#
#2688
1!
0$
0#
#2691
0!
#2692
1$
#2695
1#
#2697
1!
0#
#2701
0!
#2704
1#
#2707
0"
0$
1!
0#
#2711
0!
1$
#2712
1"
#2714
1#
#2716
1!
0$
#2717
0#
#2721
0!
#2726
1!
1#
1$
#2730
0!
#2731
0#
#2734
1#
#2736
1!
0#
0$
#2740
0!
#2741
1$
#2745
1!
#2747
1#
#2750
0!
#2751
0#
#2753
1#
#2755
1!
0$
#2757
0#
#2760
0!
#2763
1#
#2765
1!
0#
#2770
0!
1$
#2773
1#
#2776
1!
#2779
0!
#2780
0#
#2783
1#
#2785
1!
0#
0$
#2789
0!
#2790
1$
#2792
1#
#2795
0"
1!
0#
0$
#2799
0!
#2800
1"
#2802
1#
#2804
1!
1$
#2809
0!
0#
#2812
1#
#2814
1!
0$
#2815
0#
#2818
0!
#2819
1$
#2824
1!
#2828
0!
#2831
1#
#2833
0"
#2834
1!
0#
0$
#2838
0!
#2839
1"
#2841
1#
#2843
1!
#2845
0#
#2848
0!
1$
#2851
1#
#2853
1!
#2858
0!
0#
#2861
1#
#2864
1!
0$
0#
#2868
0!
1$
#2871
1#
#2873
1!
0#
#2874
1#
#2877
0!
#2878
0$
#2879
0#
#2882
1!
1#
#2883
0#
#2887
0!
1$
#2891
1#
#2892
1!
0#
0$
#2897
0!
#2900
1#
#2902
1!
1$
#2906
0!
#2907
0#
#2912
1!
0$
#2916
0!
#2921
0"
#2922
1!
#2926
0!
#2927
1"
1$
#2929
1#
#2931
1!
#2936
0!
0#
#2939
1#
#2941
1!
0$
#2942
0#
#2946
0!
1$
#2949
1#
#2952
1!
0#
#2956
0!
#2959
1#
#2961
1!
0"
0#
0$
#2965
0!
#2966
1"
1$
#2968
1#
#2970
1!
0$
#2971
0#
#2975
0!
1$
#2979
1#
#2980
1!
#2985
0!
0#
#2988
1#
#2990
1!
0$
#2991
0#
#2994
0!
#2995
1$
#2998
1#
#3000
1!
0#
#3002
1#
#3004
0!
#3005
0#
#3007
1#
#3010
1!
0#
0$
#3014
0!
#3015
1$
#3017
1#
#3019
1!
0$
#3022
0#
#3024
0!
1$
#3027
1#
#3029
1!
#3034
0!
0#
#3037
1#
#3039
1!
0#
0$
#3044
0!
1$
#3047
1#
#3049
1!
0"
0#
0$
#3053
0!
#3054
1"
1$
#3056
1#
#3058
1!
#3059
0#
#3060
1#
#3063
0!
#3064
0#
#3067
1#
#3068
1!
0$
#3069
0#
#3073
0!
1$
#3076
1#
#3078
1!
#3079
0#
#3083
0!
#3086
1#
#3088
1!
0"
0#
0$
#3092
0!
#3093
1"
1$
#3095
1#
#3097
1!
#3098
0#
0$
#3102
0!
1$
#3105
1#
#3107
1!
#3113
0!
0#
#3115
1#
#3117
1!
0$
#3118
0#
#3122
0!
1$
#3125
1#
#3127
1!
#3132
0!
0#
#3136
1#
#3137
1!
0#
0$
#3141
0!
#3142
1$
#3144
1#
#3146
1!
#3147
0$
#3149
0#
#3151
0!
1$
#3155
1#
#3156
1!
#3161
0!
0#
#3164
1#
#3166
1!
0$
#3167
0#
#3170
0!
#3171
1$
#3174
1#
#3176
1!
0"
0#
0$
#3180
0!
#3181
1"
1$
#3183
1#
#3186
1!
0#
#3187
1#
#3190
0!
#3191
0#
#3193
1#
#3195
1!
0$
#3197
0#
#3201
0!
1$
#3203
1#
#3205
1!
#3206
0#
#3210
0!
#3213
1#
#3215
1!
0"
0#
0$
#3220
0!
1"
1$
#3224
1#
#3225
1!
0#
0$
#3229
0!
#3230
1$
#3232
1#
#3234
1!
#3235
0#
#3236
1#
#3239
0!
0#
#3243
1#
#3244
1!
0$
#3245
0#
#3249
0!
1$
#3252
1#
#3254
1!
#3258
0!
#3259
0#
#3262
1#
#3264
1!
0#
0$
#3268
0!
#3270
1$
#3271
1#
#3273
1!
#3274
0$
#3276
0#
#3278
0!
1$
#3281
1#
#3283
1!
#3289
0!
0#
#3291
1#
#3293
1!
0$
#3294
0#
#3298
0!
1$
#3301
1#
#3303
1!
0"
0#
0$
#3308
0!
1$
#3309
1"
#3312
1#
#3313
1!
0#
#3314
1#
#3317
0!
#3318
0#
#3320
1#
#3322
1!
#3323
0#
0$
#3327
0!
1$
#3331
1#
#3332
1!
#3333
0#
#3337
0!
#3340
1#
#3342
1!
0"
0#
0$
#3346
0!
#3348
1"
#3352
1!
#3356
0!
#3358
1$
#3359
1#
#3362
1!
0#
#3363
1#
#3366
0!
#3367
0#
#3371
1!
0$
#3377
0!
1$
#3379
1#
#3381
1!
#3386
0!
0#
0$
#3389
1#
#3391
1!
0#
#3395
0!
#3396
1$
#3400
1#
#3401
1!
0$
#3404
0#
#3405
0!
#3406
1$
#3408
1#
#3410
1!
#3415
0!
#3416
0#
#3418
1#
#3420
1!
0$
#3421
0#
#3425
0!
#3428
1#
#3430
1!
0"
#3431
0#
#3434
0!
#3435
1$
#3436
1"
#3438
1#
#3440
1!
0#
#3442
1#
#3444
0!
#3446
0#
#3449
1!
#3450
0$
#3454
0!
#3455
1$
#3457
1#
#3459
1!
#3460
0#
#3465
0!
0$
#3467
1#
#3469
1!
0"
#3470
0#
#3474
0!
1$
#3475
1"
#3477
1#
#3479
1!
0$
#3480
0#
#3483
0!
#3484
1$
#3488
1#
#3489
1!
0#
#3490
1#
#3493
0!
#3494
0#
#3496
1#
#3498
1!
#3499
0#
0$
#3503
0!
1$
#3506
1#
#3508
1!
0#
#3509
1#
#3513
0!
0#
0$
#3516
1#
#3518
1!
0#
#3522
0!
#3523
1$
#3528
1!
0$
#3532
0!
#3538
1!
1#
1$
#3542
0!
#3543
0#
#3545
1#
#3547
1!
0#
0$
#3553
0!
1$
#3555
1#
#3557
1!
0"
0$
#3558
0#
#3562
0!
1$
#3563
1"
#3565
1#
#3567
1!
#3571
0!
#3572
0#
#3576
1#
#3577
1!
0#
0$
#3581
0!
#3582
1$
#3584
1#
#3586
1!
#3587
0#
#3591
0!
#3594
1#
#3596
1!
0"
0$
#3597
0#
#3601
0!
1$
#3603
1"
#3604
1#
#3606
1!
0$
#3607
0#
#3610
0!
#3611
1$
#3614
1#
#3616
1!
0#
#3617
1#
#3620
0!
#3622
0#
#3623
1#
#3626
1!
0#
0$
#3630
0!
#3631
1$
#3633
1#
#3635
1!
#3640
0!
0#
#3643
1#
#3645
1!
0$
#3646
0#
#3650
0!
1$
#3653
1#
#3655
1!
0$
#3658
0#
#3659
0!
#3660
1$
#3663
1#
#3665
1!
0#
#3666
1#
#3669
0!
#3670
0#
#3672
1#
#3674
1!
#3675
0#
0$
#3679
0!
1$
#3682
1#
#3684
1!
0"
0$
#3685
0#
#3689
0!
1$
#3691
1"
#3692
1#
#3694
1!
#3698
0!
#3699
0#
#3702
1#
#3704
1!
0#
0$
#3708
0!
#3710
1$
#3711
1#
#3714
1!
0#
#3718
0!
#3721
1#
#3723
1!
0"
0$
#3724
0#
#3728
0!
1$
#3729
1"
#3731
1#
#3733
1!
0$
#3734
0#
#3738
0!
1$
#3741
1#
#3743
1!
#3747
0!
#3748
0#
#3751
1#
#3753
1!
0#
0$
#3757
0!
#3758
1$
#3760
1#
#3762
1!
#3767
0!
#3768
0#
#3770
1#
#3772
1!
0$
#3773
0#
#3777
0!
1$
#3780
1#
#3783
1!
0$
#3785
0#
#3786
0!
#3787
1$
#3790
1#
#3792
1!
0#
#3793
1#
#3796
0!
#3797
0#
#3799
1#
#3802
1!
0#
0$
#3806
0!
#3807
1$
#3809
1#
#3811
1!
0"
0$
#3812
0#
#3816
0!
1$
#3817
1"
#3819
1#
#3821
1!
#3826
0!
0#
#3829
1#
#3831
1!
0$
#3832
0#
#3835
0!
#3836
1$
#3839
1#
#3841
1!
0#
#3845
0!
#3848
1#
#3850
0"
#3851
1!
0#
0$
#3855
0!
1$
#3856
1"
#3858
1#
#3860
1!
0$
#3861
0#
#3865
0!
1$
#3868
1#
#3871
1!
#3874
0!
#3875
0#
#3878
1#
#3880
1!
0#
0$
#3884
0!
#3885
1$
#3887
1#
#3890
1!
0#
#3891
1#
#3894
0!
#3895
0#
#3897
1#
#3899
1!
0$
#3900
0#
#3904
0!
1$
#3907
1#
#3909
1!
0$
#3913
0#
#3914
0!
1$
#3917
1#
#3919
1!
#3923
0!
#3924
0#
#3927
1#
#3929
1!
0#
0$
#3933
0!
#3934
1$
#3936
1#
#3938
0"
#3939
1!
0#
0$
#3943
0!
1$
#3944
1"
#3946
1#
#3948
1!
#3953
0!
0#
#3956
1#
#3959
1!
0$
0#
#3963
0!
1$
#3966
1#
#3968
1!
0#
#3972
0!
#3973
0$
#3978
0"
1!
#3982
0!
#3983
1"
1$
#3985
1#
#3987
1!
0$
#3988
0#
#3992
0!
1$
#3997
1!
#3998
1#
#4002
0!
0#
#4005
1#
#4007
1!
0$
#4008
0#
#4011
0!
#4015
1#
#4017
1!
0#
1$
#4018
1#
#4021
0!
#4022
0#
#4024
1#
#4026
1!
#4028
0#
0$
#4031
0!
1$
#4034
1#
#4036
1!
0$
#4039
0#
#4041
0!
1$
#4044
1#
#4047
1!
#4051
0!
0#
0$
#4054
1#
#4056
1!
#4057
0#
#4060
0!
#4061
1$
#4063
1#
#4066
0"
1!
0#
0$
#4070
0!
#4071
1"
1$
#4075
1!
#4076
1#
#4080
0!
#4081
0#
#4083
1#
#4085
1!
0$
#4086
0#
#4090
0!
#4093
1#
#4095
1!
1$
#4096
0#
#4099
0!
#4103
1#
#4105
1!
0"
0#
0$
#4109
0!
#4110
1"
1$
#4112
1#
#4114
1!
#4116
0#
0$
#4119
0!
1$
#4122
1#
#4124
1!
#4129
0!
0#
0$
#4132
1#
#4135
1!
0#
#4139
0!
1$
#4144
1!
#4145
1#
#4148
0!
#4149
0#
0$
#4154
1!
#4158
0!
#4159
1$
#4162
1#
#4163
1!
0#
0$
#4168
0!
#4171
1#
#4173
1!
0#
1$
#4174
1#
#4178
0!
0#
#4181
1#
#4183
1!
0$
#4184
0#
#4187
0!
#4188
1$
#4191
1#
#4193
1!
0"
0#
0$
#4197
0!
#4198
1"
1$
#4200
1#
#4202
1!
#4204
0#
1#
#4207
0!
#4208
0#
#4210
1#
#4212
1!
0$
#4213
0#
#4217
0!
1$
#4220
1#
#4223
1!
0#
#4227
0!
#4230
1#
#4232
1!
0"
0#
0$
#4236
0!
#4237
1"
1$
#4239
1#
#4241
1!
#4242
0#
0$
#4246
0!
#4247
1$
#4250
1#
#4251
1!
#4256
0!
0#
#4259
1#
#4261
1!
0$
#4262
0#
#4266
0!
1$
#4269
1#
#4271
1!
#4275
0!
#4276
0#
#4279
1#
#4281
1!
0#
0$
#4285
0!
#4286
1$
#4288
1#
#4290
1!
#4292
0$
#4293
0#
#4296
0!
1$
#4298
1#
#4300
1!
#4305
0!
0#
#4308
1#
#4310
1!
0$
#4311
0#
#4315
0!
1$
#4318
1#
#4320
1!
0"
0#
0$
#4324
0!
#4325
1"
1$
#4327
1#
#4330
1!
0#
#4331
1#
#4334
0!
#4335
0#
#4338
1#
#4339
1!
0$
#4340
0#
#4344
0!
1$
#4347
1#
#4349
1!
#4350
0#
#4354
0!
#4357
1#
#4359
1!
0"
0#
0$
#4363
0!
#4364
1"
1$
#4367
1#
#4369
1!
0#
0$
#4373
0!
#4374
1$
#4376
1#
#4378
1!
#4380
0#
1#
#4384
0!
0#
#4386
1#
#4388
1!
0$
#4389
0#
#4393
0!
1$
#4396
1#
#4398
1!
#4403
0!
0#
#4407
1#
#4408
1!
0#
0$
#4412
0!
#4413
1$
#4415
1#
#4418
1!
0$
#4420
0#
#4422
0!
#4423
1$
#4426
1#
#4427
1!
#4432
0!
0#
#4435
1#
#4437
1!
0$
#4438
0#
#4442
0!
1$
#4445
1#
#4447
1!
0"
0#
0$
#4451
0!
#4452
1"
1$
#4455
1#
#4457
1!
0#
#4458
1#
#4461
0!
#4462
0#
#4464
1#
#4466
1!
#4468
0#
0$
#4472
0!
1$
#4474
1#
#4476
1!
#4477
0#
#4481
0!
#4484
1#
#4486
1!
0"
0#
0$
#4491
0!
1$
#4492
1"
#4495
1#
#4496
1!
0#
0$
#4500
0!
#4501
1$
#4503
1#
#4506
1!
0#
#4507
1#
#4510
0!
#4511
0#
#4514
1#
#4515
1!
0$
#4516
0#
#4520
0!
1$
